<svg width="100" height="100" viewBox="0 0 100 100" fill="none" xmlns="http://www.w3.org/2000/svg">
<g clip-path="url(#clip0_312_354)">
<path d="M56.9518 2.63397V12.5055H96.8922C98.6086 12.5055 100 13.8969 100 15.6135V83.5578C100 85.2742 98.6086 86.6656 96.8922 86.6656H56.9518V97.366L0 87.2869V12.6953L56.9518 2.63417V2.63397ZM38.0533 44.0822C38.2449 41.0474 37.5244 37.9711 35.483 36.0035C33.0537 33.6615 31.4342 33.2514 24.4891 33.6109L18.8473 33.9031V65.7693H24.5836V54.707C35.1666 55.6103 37.6195 49.5056 38.0531 44.0822H38.0533ZM31.4604 44.0822C31.1605 49.2603 28.7623 49.0424 24.5834 48.9709V39.3424C29.2801 39.1767 31.3074 39.8201 31.4604 44.0822ZM92.2705 44.0543L81.5064 55.2812L70.2545 44.0543H78.6672V29.3043H56.9518V58.1404L65.5986 49.6314L78.4623 62.5043C78.4623 62.5043 65.8725 74.7836 65.5738 74.7836C65.2756 74.7836 56.9518 66.8455 56.9518 66.8455V83.3879H96.6949V15.7832H56.9518V23.9775H83.9936V44.0541H92.2705V44.0543Z" fill="black"/>
</g>
<defs>
<clipPath id="clip0_312_354">
<rect width="100" height="100" fill="white"/>
</clipPath>
</defs>
</svg>
