<svg width="100" height="100" viewBox="0 0 100 100" fill="none" xmlns="http://www.w3.org/2000/svg">
<path d="M50.0007 8.33325C27.0257 8.33325 8.33398 27.0249 8.33398 49.9999C8.33398 72.9749 27.0257 91.6666 50.0007 91.6666C72.9757 91.6666 91.6673 72.9749 91.6673 49.9999C91.6673 27.0249 72.9757 8.33325 50.0007 8.33325ZM50.0007 83.3333C31.6215 83.3333 16.6673 68.3791 16.6673 49.9999C16.6673 31.6208 31.6215 16.6666 50.0007 16.6666C68.3798 16.6666 83.334 31.6208 83.334 49.9999C83.334 68.3791 68.3798 83.3333 50.0007 83.3333Z" fill="black"/>
<path d="M54.1673 29.1667H45.834V51.7251L59.5548 65.4459L65.4465 59.5543L54.1673 48.2751V29.1667Z" fill="black"/>
</svg>
