<svg width="100" height="100" viewBox="0 0 100 100" fill="none" xmlns="http://www.w3.org/2000/svg">
<path d="M23.0769 0V14.0609L9.67692 4.96957L5.70769 12.4217L13.0385 17.3913H0V100H23.0769V91.3043H7.69231V26.087H38.5654C41.7692 23.3913 45.7077 21.7391 50 21.7391C51.3538 21.7391 52.6231 21.9217 53.8462 22.1826V17.3913H40.8115L48.1385 12.4217L44.1692 4.96957L30.7692 14.0609V0H23.0769ZM50 30.4348C43.6731 30.4348 38.4615 36.3261 38.4615 43.4783C38.4615 45.0087 38.75 46.4522 39.1846 47.8261H30.7692V100H100V47.8261H91.5846C92.0481 46.4356 92.2928 44.9641 92.3077 43.4783C92.3077 36.3261 87.0962 30.4348 80.7692 30.4348C74.0385 30.4348 69.4692 36.2087 66.4654 41.0348C66.0615 41.6739 65.7423 42.313 65.3846 42.9435C65.0231 42.313 64.7077 41.6826 64.3038 41.0304C61.2962 36.2087 56.7308 30.4348 50 30.4348ZM50 39.1304C52.4038 39.1304 55.5308 42.0478 57.9346 45.9261C58.5192 46.8739 58.4308 46.9304 58.8962 47.8348H50C47.8231 47.8348 46.1538 45.9478 46.1538 43.487C46.145 42.9128 46.2384 42.3426 46.4285 41.8101C46.6185 41.2776 46.9014 40.7937 47.2602 40.3873C47.619 39.9809 48.0465 39.6602 48.5172 39.4442C48.9878 39.2283 49.4921 39.1216 50 39.1304ZM80.7692 39.1304C82.9462 39.1304 84.6154 41.0174 84.6154 43.4783C84.6154 45.9391 82.9462 47.8261 80.7692 47.8261H71.8731C72.3423 46.9261 72.25 46.8696 72.8346 45.9217C75.2423 42.0522 78.3654 39.1304 80.7692 39.1304ZM38.4615 56.5217H61.5385V91.3043H38.4615V56.5217ZM69.2308 56.5217H92.3077V91.3043H69.2308V56.5217Z" fill="black"/>
</svg>
